-- Merging decision tree log ---
manifest
ADDED from C:\Users\User\Desktop\stackSearch\Stacksearch\app\src\main\AndroidManifest.xml:2:1-28:12
	package
		ADDED from C:\Users\User\Desktop\stackSearch\Stacksearch\app\src\main\AndroidManifest.xml:3:5-43
		INJECTED from C:\Users\User\Desktop\stackSearch\Stacksearch\app\src\main\AndroidManifest.xml
		INJECTED from C:\Users\User\Desktop\stackSearch\Stacksearch\app\src\main\AndroidManifest.xml
	android:versionName
		INJECTED from C:\Users\User\Desktop\stackSearch\Stacksearch\app\src\main\AndroidManifest.xml
		INJECTED from C:\Users\User\Desktop\stackSearch\Stacksearch\app\src\main\AndroidManifest.xml
	xmlns:android
		ADDED from C:\Users\User\Desktop\stackSearch\Stacksearch\app\src\main\AndroidManifest.xml:2:11-69
	android:versionCode
		INJECTED from C:\Users\User\Desktop\stackSearch\Stacksearch\app\src\main\AndroidManifest.xml
		INJECTED from C:\Users\User\Desktop\stackSearch\Stacksearch\app\src\main\AndroidManifest.xml
uses-permission#android.permission.INTERNET
ADDED from C:\Users\User\Desktop\stackSearch\Stacksearch\app\src\main\AndroidManifest.xml:5:5-66
	android:name
		ADDED from C:\Users\User\Desktop\stackSearch\Stacksearch\app\src\main\AndroidManifest.xml:5:22-64
application
ADDED from C:\Users\User\Desktop\stackSearch\Stacksearch\app\src\main\AndroidManifest.xml:7:5-26:19
MERGED from [com.android.support:appcompat-v7:25.3.0] C:\Users\User\.android\build-cache\472450958dc6c4bf9552ea448074f0d220cc71ba\output\AndroidManifest.xml:29:5-20
MERGED from [com.android.support:support-v4:25.3.0] C:\Users\User\.android\build-cache\b90b590ee1eaba0798d90607e10dc4c9960c57db\output\AndroidManifest.xml:29:5-20
MERGED from [com.android.support:support-fragment:25.3.0] C:\Users\User\.android\build-cache\d7ca58a7969bef86821196b5d5d3e7c81c9bd804\output\AndroidManifest.xml:29:5-20
MERGED from [com.android.support:support-media-compat:25.3.0] C:\Users\User\.android\build-cache\1c1d78dc7ea4b08da0ad6105a798d86d21261fb9\output\AndroidManifest.xml:29:5-20
MERGED from [com.android.support:support-core-ui:25.3.0] C:\Users\User\.android\build-cache\4dc267978181334df299fa0b94a8efd5f4c30015\output\AndroidManifest.xml:29:5-20
MERGED from [com.android.support:support-core-utils:25.3.0] C:\Users\User\.android\build-cache\75aa6a7f2baceac703bcc81e9f83000b82c0716e\output\AndroidManifest.xml:29:5-20
MERGED from [com.android.support:animated-vector-drawable:25.3.0] C:\Users\User\.android\build-cache\2f3f198fef2679b2760af8663a481a99325cc9e5\output\AndroidManifest.xml:26:5-20
MERGED from [com.android.support:support-vector-drawable:25.3.0] C:\Users\User\.android\build-cache\1d4bdea01a3b171534bc60df20ae46aa2c9cb766\output\AndroidManifest.xml:26:5-20
MERGED from [com.android.support:support-compat:25.3.0] C:\Users\User\.android\build-cache\9e3b9280649494ee7872c44cc4fba3024ec974a6\output\AndroidManifest.xml:29:5-20
MERGED from [com.android.support.constraint:constraint-layout:1.0.2] C:\Users\User\.android\build-cache\941915dcbfd55c7cd0dadc6f460760f145af810b\output\AndroidManifest.xml:9:5-20
	android:label
		ADDED from C:\Users\User\Desktop\stackSearch\Stacksearch\app\src\main\AndroidManifest.xml:10:9-41
	android:supportsRtl
		ADDED from C:\Users\User\Desktop\stackSearch\Stacksearch\app\src\main\AndroidManifest.xml:12:9-35
	android:roundIcon
		ADDED from C:\Users\User\Desktop\stackSearch\Stacksearch\app\src\main\AndroidManifest.xml:11:9-54
	android:allowBackup
		ADDED from C:\Users\User\Desktop\stackSearch\Stacksearch\app\src\main\AndroidManifest.xml:8:9-35
	android:icon
		ADDED from C:\Users\User\Desktop\stackSearch\Stacksearch\app\src\main\AndroidManifest.xml:9:9-43
	android:theme
		ADDED from C:\Users\User\Desktop\stackSearch\Stacksearch\app\src\main\AndroidManifest.xml:13:9-40
activity#info.androidhive.stacksearch.MainActivity
ADDED from C:\Users\User\Desktop\stackSearch\Stacksearch\app\src\main\AndroidManifest.xml:14:9-22:20
	android:screenOrientation
		ADDED from C:\Users\User\Desktop\stackSearch\Stacksearch\app\src\main\AndroidManifest.xml:15:13-49
	android:name
		ADDED from C:\Users\User\Desktop\stackSearch\Stacksearch\app\src\main\AndroidManifest.xml:14:19-47
intent-filter#android.intent.action.MAIN+android.intent.category.LAUNCHER
ADDED from C:\Users\User\Desktop\stackSearch\Stacksearch\app\src\main\AndroidManifest.xml:17:13-21:29
action#android.intent.action.MAIN
ADDED from C:\Users\User\Desktop\stackSearch\Stacksearch\app\src\main\AndroidManifest.xml:18:17-69
	android:name
		ADDED from C:\Users\User\Desktop\stackSearch\Stacksearch\app\src\main\AndroidManifest.xml:18:25-66
category#android.intent.category.LAUNCHER
ADDED from C:\Users\User\Desktop\stackSearch\Stacksearch\app\src\main\AndroidManifest.xml:20:17-77
	android:name
		ADDED from C:\Users\User\Desktop\stackSearch\Stacksearch\app\src\main\AndroidManifest.xml:20:27-74
activity#info.androidhive.stacksearch.WebViewActivity
ADDED from C:\Users\User\Desktop\stackSearch\Stacksearch\app\src\main\AndroidManifest.xml:23:9-25:20
	android:name
		ADDED from C:\Users\User\Desktop\stackSearch\Stacksearch\app\src\main\AndroidManifest.xml:23:19-50
uses-sdk
INJECTED from C:\Users\User\Desktop\stackSearch\Stacksearch\app\src\main\AndroidManifest.xml reason: use-sdk injection requested
MERGED from [com.android.support:appcompat-v7:25.3.0] C:\Users\User\.android\build-cache\472450958dc6c4bf9552ea448074f0d220cc71ba\output\AndroidManifest.xml:21:5-23:78
MERGED from [com.android.support:support-v4:25.3.0] C:\Users\User\.android\build-cache\b90b590ee1eaba0798d90607e10dc4c9960c57db\output\AndroidManifest.xml:21:5-23:54
MERGED from [com.android.support:support-fragment:25.3.0] C:\Users\User\.android\build-cache\d7ca58a7969bef86821196b5d5d3e7c81c9bd804\output\AndroidManifest.xml:21:5-23:60
MERGED from [com.android.support:support-media-compat:25.3.0] C:\Users\User\.android\build-cache\1c1d78dc7ea4b08da0ad6105a798d86d21261fb9\output\AndroidManifest.xml:21:5-23:63
MERGED from [com.android.support:support-core-ui:25.3.0] C:\Users\User\.android\build-cache\4dc267978181334df299fa0b94a8efd5f4c30015\output\AndroidManifest.xml:21:5-23:58
MERGED from [com.android.support:support-core-utils:25.3.0] C:\Users\User\.android\build-cache\75aa6a7f2baceac703bcc81e9f83000b82c0716e\output\AndroidManifest.xml:21:5-23:61
MERGED from [com.android.support:animated-vector-drawable:25.3.0] C:\Users\User\.android\build-cache\2f3f198fef2679b2760af8663a481a99325cc9e5\output\AndroidManifest.xml:20:5-44
MERGED from [com.android.support:support-vector-drawable:25.3.0] C:\Users\User\.android\build-cache\1d4bdea01a3b171534bc60df20ae46aa2c9cb766\output\AndroidManifest.xml:20:5-43
MERGED from [com.android.support:support-compat:25.3.0] C:\Users\User\.android\build-cache\9e3b9280649494ee7872c44cc4fba3024ec974a6\output\AndroidManifest.xml:21:5-23:58
MERGED from [com.android.support.constraint:constraint-layout:1.0.2] C:\Users\User\.android\build-cache\941915dcbfd55c7cd0dadc6f460760f145af810b\output\AndroidManifest.xml:5:5-7:41
	tools:overrideLibrary
		ADDED from [com.android.support:appcompat-v7:25.3.0] C:\Users\User\.android\build-cache\472450958dc6c4bf9552ea448074f0d220cc71ba\output\AndroidManifest.xml:23:9-75
	android:targetSdkVersion
		INJECTED from C:\Users\User\Desktop\stackSearch\Stacksearch\app\src\main\AndroidManifest.xml
		INJECTED from C:\Users\User\Desktop\stackSearch\Stacksearch\app\src\main\AndroidManifest.xml
	android:minSdkVersion
		INJECTED from C:\Users\User\Desktop\stackSearch\Stacksearch\app\src\main\AndroidManifest.xml
		INJECTED from C:\Users\User\Desktop\stackSearch\Stacksearch\app\src\main\AndroidManifest.xml
meta-data#android.support.VERSION
ADDED from [com.android.support:appcompat-v7:25.3.0] C:\Users\User\.android\build-cache\472450958dc6c4bf9552ea448074f0d220cc71ba\output\AndroidManifest.xml:25:5-27:34
MERGED from [com.android.support:support-v4:25.3.0] C:\Users\User\.android\build-cache\b90b590ee1eaba0798d90607e10dc4c9960c57db\output\AndroidManifest.xml:25:5-27:34
MERGED from [com.android.support:support-fragment:25.3.0] C:\Users\User\.android\build-cache\d7ca58a7969bef86821196b5d5d3e7c81c9bd804\output\AndroidManifest.xml:25:5-27:34
MERGED from [com.android.support:support-media-compat:25.3.0] C:\Users\User\.android\build-cache\1c1d78dc7ea4b08da0ad6105a798d86d21261fb9\output\AndroidManifest.xml:25:5-27:34
MERGED from [com.android.support:support-core-ui:25.3.0] C:\Users\User\.android\build-cache\4dc267978181334df299fa0b94a8efd5f4c30015\output\AndroidManifest.xml:25:5-27:34
MERGED from [com.android.support:support-core-utils:25.3.0] C:\Users\User\.android\build-cache\75aa6a7f2baceac703bcc81e9f83000b82c0716e\output\AndroidManifest.xml:25:5-27:34
MERGED from [com.android.support:animated-vector-drawable:25.3.0] C:\Users\User\.android\build-cache\2f3f198fef2679b2760af8663a481a99325cc9e5\output\AndroidManifest.xml:22:5-24:34
MERGED from [com.android.support:support-vector-drawable:25.3.0] C:\Users\User\.android\build-cache\1d4bdea01a3b171534bc60df20ae46aa2c9cb766\output\AndroidManifest.xml:22:5-24:34
MERGED from [com.android.support:support-compat:25.3.0] C:\Users\User\.android\build-cache\9e3b9280649494ee7872c44cc4fba3024ec974a6\output\AndroidManifest.xml:25:5-27:34
	android:value
		ADDED from [com.android.support:appcompat-v7:25.3.0] C:\Users\User\.android\build-cache\472450958dc6c4bf9552ea448074f0d220cc71ba\output\AndroidManifest.xml:27:9-31
	android:name
		ADDED from [com.android.support:appcompat-v7:25.3.0] C:\Users\User\.android\build-cache\472450958dc6c4bf9552ea448074f0d220cc71ba\output\AndroidManifest.xml:26:9-47
